{
    "code": 0,
    "msg": "成功",
    "data": {
        "pageNo": 1,
        "pageSize": 10,
        "result": [
            {
                "doctorId": 158,
                "name": "祝亚楠",
                "photo": "https://img.zjhealthkj.com/doctor/images/emcard/158/bd132ff0-c2d6-4138-9489-6f832144a8e9.jpg",
                "departmentId": 301,
                "department": "妇科",
                "title": "",
                "titleId": 0,
                "hospital": "河南张仲景国医馆有限公司二七河医立交桥中医门诊部",
                "hospitalId": 41732,
                "status": 1,
                "relation": -1,
                "authStatus": 2,
                "patientNum": 43,
                "serviceNum": "0",
                "praiseRate": "100%",
                "videoCost": 1000,
                "videoLength": 15,
                "isOpenVideo": 1,
                "voiceCost": 0,
                "voiceLength": 1,
                "isOpenVoice": 0,
                "payStatus": 0,
                "consultCost": 1000,
                "consultPayType": 1,
                "during": false,
                "chatting": false
            },
            {
                "doctorId": 45,
                "name": "王永燕",
                "photo": "https://img.zjhealthkj.com/doctor/images/photo/45/8a9dd184-f6c3-45b8-9290-1000729ea595.jpg",
                "departmentId": 289,
                "department": "儿科",
                "title": "",
                "titleId": 3,
                "hospital": "河南张仲景国医馆有限公司金水丰庆路中医门诊部",
                "hospitalId": 41736,
                "expertise": " 儿科：急慢性呼吸道疾病：感冒、发热、咳嗽、急性支气管炎、肺炎、哮喘、久咳、急慢性鼻炎、鼻窦炎、过敏性鼻炎等；急慢性胃肠\n道疾病：腹泻、呕吐、腹痛、便秘、积滞、厌食、府证等；其它：多动症、抽动症、生长发育迟缓、及易感冒、易积滞、反复口疮、反复麦粒肿等亚健康状态；\n妇科：月经病、带下病、产后病、更年期综合征、乳腺疾病等；\n消化科：胃炎、胃溃疡、肝胆疾病、便秘、腹泻等；\n皮肤科：湿疹、痤疮、粉刺、斑秃等。\n",
                "status": 1,
                "relation": -1,
                "authStatus": 2,
                "patientNum": 0,
                "serviceNum": "190",
                "praiseRate": "88.1%",
                "videoCost": 12000,
                "videoLength": 15,
                "isOpenVideo": 1,
                "voiceCost": 0,
                "voiceLength": 1,
                "isOpenVoice": 0,
                "payStatus": 0,
                "consultCost": 500,
                "consultPayType": 1,
                "during": false,
                "chatting": false
            },
            {
                "doctorId": 84,
                "name": "王林艳",
                "photo": "https://img.zjhealthkj.com/doctor/images/photo/84/bce5004f-2ba7-4739-96ac-5afafcff45d6.jpg",
                "departmentId": 337,
                "department": "普通儿科",
                "title": "",
                "titleId": 0,
                "hospital": "河南张仲景国医馆有限公司郑东心怡路中医门诊部",
                "hospitalId": 41734,
                "expertise": "主要临床方向：\r\n1、儿童及成人胃肠功能异常引起的诸多临床和亚临床表现，如易积滞、便秘、扁桃体及腺样体肥大、厌食、肥胖或消瘦、慢性腹痛、慢性湿疮、唇炎、生长发育迟缓、注意力不集中，以及亚健康体质调理等；\r\n2、儿童及成人免疫功能紊乱引起的诸多临床和亚临床表现，如反复感冒发热、久咳、复发性口疮、急慢性鼻炎、慢性疲劳综合症、病号术后体虚等；\r\n3、其他如月经不调、痛经、孕前产后体质调理、眩晕头痛、结节体质、结石病、骨关节炎腰腿疼痛、“四高”早期、失眠痤疮等。",
                "status": 1,
                "relation": -1,
                "authStatus": 2,
                "patientNum": 0,
                "serviceNum": "152",
                "praiseRate": "92.1%",
                "videoCost": 1000,
                "videoLength": 15,
                "isOpenVideo": 1,
                "voiceCost": 0,
                "voiceLength": 1,
                "isOpenVoice": 0,
                "payStatus": 0,
                "consultCost": 0,
                "consultPayType": 0,
                "during": false,
                "chatting": false
            },
            {
                "doctorId": 22,
                "name": "姚良佳",
                "photo": "https://img.zjhealthkj.com/doctor/images/photo/22/f49698b8-2077-46fc-8772-3c0a7afaf0e3.jpg",
                "departmentId": 305,
                "department": "张仲景国医馆",
                "title": "",
                "titleId": 3,
                "hospital": "张仲景国医馆",
                "hospitalId": 0,
                "expertise": "中医内科，中医妇科",
                "status": 1,
                "relation": -1,
                "authStatus": 2,
                "patientNum": 0,
                "serviceNum": "119",
                "praiseRate": "85.0%",
                "videoCost": 1000,
                "videoLength": 15,
                "isOpenVideo": 1,
                "voiceCost": 0,
                "voiceLength": 1,
                "isOpenVoice": 0,
                "payStatus": 0,
                "consultCost": 0,
                "consultPayType": 0,
                "during": false,
                "chatting": false
            },
            {
                "doctorId": 122,
                "name": "梁金莲",
                "photo": "https://img.zjhealthkj.com/doctor/images/emcard/122/31c5cb8e-f7c0-488e-9daf-e2b6221d57c8.jpg",
                "departmentId": 289,
                "department": "儿科",
                "title": "",
                "titleId": 3,
                "hospital": "河南张仲景国医馆有限公司二七河医立交桥中医门诊部",
                "hospitalId": 41732,
                "expertise": "擅长治疗：儿科、内科方面的疾病。 反复感冒、咳嗽、哮喘、发热、过敏性鼻炎、鼻窦炎；反复口腔溃疡、厌食、腹泻、腹痛、便秘；多发性抽动症、多动症、遗尿、过敏性紫癜、荨麻疹、湿疹、扁桃体、腺样体肥大、高热惊厥，生长发育迟缓调理等。\r\n内科疾病：擅长内科常见疾病如感冒、咳嗽、发热、哮喘、冠心病、高血压、糖尿病、高脂血症、急慢性腹泻、便秘、复发性口腔溃疡、急慢性胃炎等。\r\n妇科疾病：月经不调、痛经、子宫肌瘤、卵巢囊肿、妇科炎症、各类乳腺疾病、不孕不育、更年期综合征、疑难杂症等。",
                "status": 1,
                "relation": -1,
                "authStatus": 2,
                "patientNum": 0,
                "serviceNum": "103",
                "praiseRate": "92.9%",
                "videoCost": 0,
                "videoLength": 15,
                "isOpenVideo": 1,
                "voiceCost": 0,
                "voiceLength": 1,
                "isOpenVoice": 0,
                "payStatus": 0,
                "consultCost": 0,
                "consultPayType": 0,
                "during": false,
                "chatting": false
            },
            {
                "doctorId": 438,
                "name": "李安祥",
                "photo": "https://img.zjhealthkj.com/doctor/images/photo/438/972e7a96-8bfc-458d-b0a3-6cd0f6cfe91b.jpg",
                "departmentId": 362,
                "department": "国医馆",
                "title": "",
                "titleId": 1,
                "hospital": "南阳张仲景医院",
                "hospitalId": 10154,
                "expertise": "方小药专、针药并用，中医在整体观念指导下详于“证”略于“病”，如仲景六经辨证将疾病整体分六大方向，提纲挈领。以下擅长“病种”仅供参考：在反酸、胃胀、胃痛、胁痛、呃逆、肝炎等消化系统疾病；甲状腺结节、肿大、甲亢、甲减、甲状腺囊肿等甲状腺疾病；卵巢囊肿、月经不调、痛经、乳腺增生、面斑、带下病等妇科疾病；小儿发热、腹泻、多动、咳嗽、遗尿、厌食及体质调整；各种发热、感冒、咳喘、眩晕、头痛、失眠、牙痛、痤疮、痒疹、多汗、水肿、虚劳、冠心病、心律不齐、颈肩腰腿痛、亚健康状态的调理方面略有见长。 ",
                "status": 1,
                "relation": -1,
                "authStatus": 2,
                "patientNum": 0,
                "serviceNum": "88",
                "praiseRate": "96.0%",
                "videoCost": 3500,
                "videoLength": 15,
                "isOpenVideo": 1,
                "voiceCost": 0,
                "voiceLength": 1,
                "isOpenVoice": 0,
                "payStatus": 0,
                "consultCost": 3000,
                "consultPayType": 1,
                "during": false,
                "chatting": false
            },
            {
                "doctorId": 265,
                "name": "周建锋",
                "photo": "https://img.zjhealthkj.com/doctor/images/photo/265/7fa4574c-9bec-4052-bd8a-4d6914de61cd.jpg",
                "departmentId": 356,
                "department": "内科",
                "title": "",
                "titleId": 0,
                "hospital": "河南张仲景国医馆西峡财富世家店中医门诊部",
                "hospitalId": 0,
                "expertise": "1呼吸疾病\r\n 反复感冒，急慢性咳嗽，哮喘，鼻炎，咽炎，支气管炎。\r\n2胃肠疾病\r\n反流性食管炎，慢性胃炎，胃十二指肠溃疡，胆囊炎，结肠炎，慢性腹泻，腹胀，腹疼，便秘，痔疮。\r\n3男科\r\n功能低下，阳痿，早泄，遗精，少精弱精，不育，前列腺炎，前列腺增生，男科保健。\r\n4妇科\r\n月经不调，经期紊乱，量少，痛经，闭经，崩漏，乳房胀疼，乳腺增生，结节。白带过多，黄带，阴道炎，宫颈炎，附件炎，盆腔积液，更年期综合征，产后缺乳及产后调理等。\r\n5皮肤科\r\n 青春痘，痤疮，湿疹，风疹，痒疹，疱疹，荨麻疹，紫癜，等各种皮癣皮炎。\r\n6其他疑难杂症\r\n 顽固性失眠，头晕，偏头疼，牙疼，反复口腔溃疡，自汗盗汗，肢体麻木，颈腰椎病，关节炎，糖尿病，高血压，心脏病，中风偏瘫，癌症化疗术后调理等。",
                "status": 1,
                "relation": -1,
                "authStatus": 2,
                "patientNum": 0,
                "serviceNum": "63",
                "praiseRate": "95.3%",
                "videoCost": 6000,
                "videoLength": 15,
                "isOpenVideo": 1,
                "voiceCost": 0,
                "voiceLength": 1,
                "isOpenVoice": 0,
                "payStatus": 0,
                "consultCost": 0,
                "consultPayType": 0,
                "during": false,
                "chatting": false
            },
            {
                "doctorId": 34,
                "name": "田群勇",
                "photo": "https://img.zjhealthkj.com/doctor/images/photo/34/87824634-5242-471c-8272-23ce99ea74bc.jpg",
                "departmentId": 305,
                "department": "张仲景国医馆",
                "title": "",
                "titleId": 3,
                "hospital": "张仲景国医馆丰庆路一店",
                "hospitalId": 0,
                "expertise": "一、预防：中医体质辨识并结合天气、地理、人体的阴阳虚实变化调理体质。\r\n二、常治:   1、痛、咳、泻三种病症。痛（风湿、类风湿关节炎、痛风、肩周炎、腱鞘炎、筋膜炎、腰膝腿痛、跌打损伤等）；咳 （鼻炎、过敏性鼻炎、咽炎、慢性咳嗽、气管支气管炎、哮喘等）。泻 （慢性胃炎、肠炎、结肠炎、慢性腹痛、五更泄等）。\r\n2、高血压、冠心病引起的眩晕头痛、心悸、失眠、多汗。\r\n3、脑中风后遗症中医药康复。\r\n4、肿瘤中医药康复。\r\n5、妇科月经紊乱、白带异常、宫寒腹痛、产后缺乳、乳腺病、卵巢囊肿等。\r\n6、男科肾亏阳痿、遗精、滑精、早泄、尿急、尿频等。\r\n三、特治：1、 湿气病。因外湿、内湿引起的皮肤、脏腑、经络等病症。（如湿疹、湿疮、荨麻疹、脚气、水肿、肥胖、纳呆腹泻便溏、湿痰久咳、风湿痹痛。）\r\n2、中医外治（三伏贴、疼痛外治、腱鞘（炎）囊肿、结肠炎、乳腺增生）。\r\n四、专方专病：扁平疣。\r\n五、兼治：下颌关节脱位、肩关节脱臼、儿童挠骨小头半脱位能熟练复位等。针灸、拔罐、刮痧、推拿治疗筋膜粘连性病，武力散发明人，创阶梯膏药治痛疗法。",
                "status": 1,
                "relation": -1,
                "authStatus": 2,
                "patientNum": 0,
                "serviceNum": "62",
                "praiseRate": "98.8%",
                "videoCost": 3000,
                "videoLength": 15,
                "isOpenVideo": 1,
                "voiceCost": 0,
                "voiceLength": 1,
                "isOpenVoice": 0,
                "payStatus": 0,
                "consultCost": 2000,
                "consultPayType": 1,
                "during": false,
                "chatting": false
            },
            {
                "doctorId": 11,
                "name": "马晨铭",
                "photo": "https://img.zjhealthkj.com/doctor/images/photo/11/40d77ca9-e462-456f-a818-a8ff2521fc53.jpg",
                "departmentId": 291,
                "department": "内科",
                "title": "",
                "titleId": 3,
                "hospital": "河南张仲景大药房股份有限公司管城商城一路店中医诊所",
                "hospitalId": 41741,
                "expertise": "内科：心脑血管疾病；失眼、眩晕、头痛、耳鸣、中风后遗院、心悸、心律不齐、心绞痛、焦虑抑郁等；呼吸系统疾病：反复感冒、咳嗽、不明原因发热、急慢性鼻炎、过敏性鼻炎、急慢性咽炎、慢性支气管炎等；消化系统疾病：反复口腔溃疡、急慢性胃炎、反流性食管炎、胆囊炎、胆结石、肝炎、慢性腹泻、长期便秘等；\r\n妇科：黄褐斑、乳腺疾病、月经不调、痛经、闭经、白带异常、泌尿系统感染、更年期综合征等；\r\n儿科科：过敏性鼻炎、反复感冒、咳嗽、厌食症、腹泻、便秘、小儿亚健康状态等；\r\n皮肤科：座疮、粉刺、湿疹、瘾疹、急慢性动静脉炎、下胶水肿、臁疮等；\r\n风湿性疾病：类风湿、风湿所致的颈、肩、腰、腿痛等。",
                "status": 1,
                "relation": -1,
                "authStatus": 2,
                "patientNum": 0,
                "serviceNum": "49",
                "praiseRate": "76.0%",
                "videoCost": 1000,
                "videoLength": 15,
                "isOpenVideo": 1,
                "voiceCost": 0,
                "voiceLength": 1,
                "isOpenVoice": 0,
                "payStatus": 0,
                "consultCost": 1000,
                "consultPayType": 1,
                "during": false,
                "chatting": false
            },
            {
                "doctorId": 51,
                "name": "库喜龙",
                "photo": "https://img.zjhealthkj.com/doctor/images/photo/51/f7c0a215-f457-41db-a6b5-5d241def060c.jpg",
                "departmentId": 291,
                "department": "内科",
                "title": "",
                "titleId": 3,
                "hospital": "河南张仲景国医馆有限公司郑东心怡路中医门诊部",
                "hospitalId": 41734,
                "expertise": "儿科：小儿挑食、感冒、长期无名低热、咳嗽、生长发育迟缓、小儿积食、小儿夜啼、尿床等；\n内科：咳嗽、反复性口腔溃疡、慢性咽炎、鼻炎、痔疮、慢性胆囊炎、慢性胃\n病、荨麻疹\n骨科：肩周炎、中风后遗症、落枕、关节扭挫伤、颈肩腰腿痛等。",
                "status": 1,
                "relation": -1,
                "authStatus": 2,
                "patientNum": 0,
                "serviceNum": "46",
                "praiseRate": "96.0%",
                "videoCost": 30000,
                "videoLength": 15,
                "isOpenVideo": 1,
                "voiceCost": 0,
                "voiceLength": 1,
                "isOpenVoice": 0,
                "payStatus": 0,
                "consultCost": 0,
                "consultPayType": 0,
                "during": false,
                "chatting": false
            }
        ],
        "totalCount": 186,
        "offset": 0,
        "first": 0,
        "totalPages": 19,
        "hasNext": true,
        "nextPage": 2,
        "orderSetted": false,
        "hasPre": false,
        "prePage": 1,
        "order": null,
        "orderBy": null,
        "numOfElements": 186
    },
    "timestamp": "2023-02-27 14:17:52"
}